[
  {
    "outputFileName": "wwwroot/js/scripts.js",
    "inputFiles": [
      "wwwroot/js/jquery.min.js",
      "wwwroot/js/browser.min.js",
      "wwwroot/js/breakpoints.min.js",
      "wwwroot/js/util.js",
      "wwwroot/js/main.js",
      "wwwroot/js/vertmenu.js"
    ]
  }
]
